{
  "version": 2,
  "targets": {
    ".NETPortable,Version=v4.5,Profile=Profile111": {
      "CommonServiceLocator/1.3.0": {
        "type": "package",
        "compile": {
          "lib/portable-net4+sl5+netcore45+wpa81+wp8/Microsoft.Practices.ServiceLocation.dll": {}
        },
        "runtime": {
          "lib/portable-net4+sl5+netcore45+wpa81+wp8/Microsoft.Practices.ServiceLocation.dll": {}
        }
      },
      "MvvmLightLibs/5.3.0": {
        "type": "package",
        "dependencies": {
          "CommonServiceLocator": "1.3.0"
        },
        "compile": {
          "lib/portable-net45+wp8+wpa81+netcore45+monoandroid1+xamarin.ios10/GalaSoft.MvvmLight.Extras.dll": {},
          "lib/portable-net45+wp8+wpa81+netcore45+monoandroid1+xamarin.ios10/GalaSoft.MvvmLight.dll": {}
        },
        "runtime": {
          "lib/portable-net45+wp8+wpa81+netcore45+monoandroid1+xamarin.ios10/GalaSoft.MvvmLight.Extras.dll": {},
          "lib/portable-net45+wp8+wpa81+netcore45+monoandroid1+xamarin.ios10/GalaSoft.MvvmLight.dll": {}
        }
      },
      "Newtonsoft.Json/10.0.3": {
        "type": "package",
        "compile": {
          "lib/portable-net45+win8+wp8+wpa81/Newtonsoft.Json.dll": {}
        },
        "runtime": {
          "lib/portable-net45+win8+wp8+wpa81/Newtonsoft.Json.dll": {}
        }
      },
      "ZXing.Net.Mobile/2.2.9": {
        "type": "package",
        "compile": {
          "lib/portable-net45+netcore45+wpa81+wp8/ZXing.Net.Mobile.Core.dll": {},
          "lib/portable-net45+netcore45+wpa81+wp8/ZXingNetMobile.dll": {},
          "lib/portable-net45+netcore45+wpa81+wp8/zxing.portable.dll": {}
        },
        "runtime": {
          "lib/portable-net45+netcore45+wpa81+wp8/ZXing.Net.Mobile.Core.dll": {},
          "lib/portable-net45+netcore45+wpa81+wp8/ZXingNetMobile.dll": {},
          "lib/portable-net45+netcore45+wpa81+wp8/zxing.portable.dll": {}
        }
      }
    }
  },
  "libraries": {
    "CommonServiceLocator/1.3.0": {
      "sha512": "fbjO0SNwbOFPdwVfyqv+B7gIJ2CVBOFPKqn1mDDECK7KER8jFaOdcvroFYoAHa0ktPbxi5s+15qOLnA96f8GSA==",
      "type": "package",
      "path": "commonservicelocator/1.3.0",
      "files": [
        "commonservicelocator.1.3.0.nupkg.sha512",
        "commonservicelocator.nuspec",
        "lib/portable-net4+sl5+netcore45+wpa81+wp8/Microsoft.Practices.ServiceLocation.XML",
        "lib/portable-net4+sl5+netcore45+wpa81+wp8/Microsoft.Practices.ServiceLocation.dll",
        "lib/portable-net4+sl5+netcore45+wpa81+wp8/Microsoft.Practices.ServiceLocation.pdb"
      ]
    },
    "MvvmLightLibs/5.3.0": {
      "sha512": "h0/CPmYeYabbUfPdXGCJWdeiWGtTP7IVNz3GU6R3Jn3TFWkikCDOSYt/L9bmrroQnZFyosTWP2Gs0LDdTl311Q==",
      "type": "package",
      "path": "mvvmlightlibs/5.3.0",
      "files": [
        "lib/SL5/GalaSoft.MvvmLight.Extras.dll",
        "lib/SL5/GalaSoft.MvvmLight.Extras.pdb",
        "lib/SL5/GalaSoft.MvvmLight.Extras.xml",
        "lib/SL5/GalaSoft.MvvmLight.dll",
        "lib/SL5/GalaSoft.MvvmLight.pdb",
        "lib/SL5/GalaSoft.MvvmLight.xml",
        "lib/SL5/System.Windows.Interactivity.dll",
        "lib/monoandroid1/GalaSoft.MvvmLight.Extras.XML",
        "lib/monoandroid1/GalaSoft.MvvmLight.Extras.dll",
        "lib/monoandroid1/GalaSoft.MvvmLight.Extras.pdb",
        "lib/monoandroid1/GalaSoft.MvvmLight.Platform.XML",
        "lib/monoandroid1/GalaSoft.MvvmLight.Platform.dll",
        "lib/monoandroid1/GalaSoft.MvvmLight.Platform.pdb",
        "lib/monoandroid1/GalaSoft.MvvmLight.XML",
        "lib/monoandroid1/GalaSoft.MvvmLight.dll",
        "lib/monoandroid1/GalaSoft.MvvmLight.pdb",
        "lib/net35/GalaSoft.MvvmLight.Extras.dll",
        "lib/net35/GalaSoft.MvvmLight.Extras.pdb",
        "lib/net35/GalaSoft.MvvmLight.Extras.xml",
        "lib/net35/GalaSoft.MvvmLight.dll",
        "lib/net35/GalaSoft.MvvmLight.pdb",
        "lib/net35/GalaSoft.MvvmLight.xml",
        "lib/net35/System.Windows.Interactivity.dll",
        "lib/net35/System.Windows.Interactivity.xml",
        "lib/net40/GalaSoft.MvvmLight.Extras.dll",
        "lib/net40/GalaSoft.MvvmLight.Extras.pdb",
        "lib/net40/GalaSoft.MvvmLight.Extras.xml",
        "lib/net40/GalaSoft.MvvmLight.dll",
        "lib/net40/GalaSoft.MvvmLight.pdb",
        "lib/net40/GalaSoft.MvvmLight.xml",
        "lib/net40/System.Windows.Interactivity.dll",
        "lib/net40/System.Windows.Interactivity.xml",
        "lib/net45/GalaSoft.MvvmLight.Extras.dll",
        "lib/net45/GalaSoft.MvvmLight.Extras.pdb",
        "lib/net45/GalaSoft.MvvmLight.Extras.xml",
        "lib/net45/GalaSoft.MvvmLight.Platform.dll",
        "lib/net45/GalaSoft.MvvmLight.Platform.pdb",
        "lib/net45/GalaSoft.MvvmLight.Platform.xml",
        "lib/net45/GalaSoft.MvvmLight.dll",
        "lib/net45/GalaSoft.MvvmLight.pdb",
        "lib/net45/GalaSoft.MvvmLight.xml",
        "lib/net45/System.Windows.Interactivity.dll",
        "lib/portable-net45+wp8+wpa81+netcore45+monoandroid1+xamarin.ios10/GalaSoft.MvvmLight.Extras.XML",
        "lib/portable-net45+wp8+wpa81+netcore45+monoandroid1+xamarin.ios10/GalaSoft.MvvmLight.Extras.dll",
        "lib/portable-net45+wp8+wpa81+netcore45+monoandroid1+xamarin.ios10/GalaSoft.MvvmLight.Extras.pdb",
        "lib/portable-net45+wp8+wpa81+netcore45+monoandroid1+xamarin.ios10/GalaSoft.MvvmLight.XML",
        "lib/portable-net45+wp8+wpa81+netcore45+monoandroid1+xamarin.ios10/GalaSoft.MvvmLight.dll",
        "lib/portable-net45+wp8+wpa81+netcore45+monoandroid1+xamarin.ios10/GalaSoft.MvvmLight.pdb",
        "lib/windows81/GalaSoft.MvvmLight.Extras.dll",
        "lib/windows81/GalaSoft.MvvmLight.Extras.pdb",
        "lib/windows81/GalaSoft.MvvmLight.Extras.xml",
        "lib/windows81/GalaSoft.MvvmLight.Platform.dll",
        "lib/windows81/GalaSoft.MvvmLight.Platform.pdb",
        "lib/windows81/GalaSoft.MvvmLight.Platform.pri",
        "lib/windows81/GalaSoft.MvvmLight.Platform.xml",
        "lib/windows81/GalaSoft.MvvmLight.dll",
        "lib/windows81/GalaSoft.MvvmLight.pdb",
        "lib/windows81/GalaSoft.MvvmLight.xml",
        "lib/wp8/GalaSoft.MvvmLight.Extras.dll",
        "lib/wp8/GalaSoft.MvvmLight.Extras.pdb",
        "lib/wp8/GalaSoft.MvvmLight.Extras.xml",
        "lib/wp8/GalaSoft.MvvmLight.Platform.dll",
        "lib/wp8/GalaSoft.MvvmLight.Platform.pdb",
        "lib/wp8/GalaSoft.MvvmLight.Platform.xml",
        "lib/wp8/GalaSoft.MvvmLight.dll",
        "lib/wp8/GalaSoft.MvvmLight.pdb",
        "lib/wp8/GalaSoft.MvvmLight.xml",
        "lib/wp8/System.Windows.Interactivity.dll",
        "lib/wp81/GalaSoft.MvvmLight.Extras.dll",
        "lib/wp81/GalaSoft.MvvmLight.Extras.pdb",
        "lib/wp81/GalaSoft.MvvmLight.Extras.xml",
        "lib/wp81/GalaSoft.MvvmLight.Platform.dll",
        "lib/wp81/GalaSoft.MvvmLight.Platform.pdb",
        "lib/wp81/GalaSoft.MvvmLight.Platform.xml",
        "lib/wp81/GalaSoft.MvvmLight.dll",
        "lib/wp81/GalaSoft.MvvmLight.pdb",
        "lib/wp81/GalaSoft.MvvmLight.xml",
        "lib/wp81/System.Windows.Interactivity.dll",
        "lib/wpa81/GalaSoft.MvvmLight.Extras.XML",
        "lib/wpa81/GalaSoft.MvvmLight.Extras.dll",
        "lib/wpa81/GalaSoft.MvvmLight.Extras.pdb",
        "lib/wpa81/GalaSoft.MvvmLight.Platform.XML",
        "lib/wpa81/GalaSoft.MvvmLight.Platform.dll",
        "lib/wpa81/GalaSoft.MvvmLight.Platform.pdb",
        "lib/wpa81/GalaSoft.MvvmLight.Platform.pri",
        "lib/wpa81/GalaSoft.MvvmLight.XML",
        "lib/wpa81/GalaSoft.MvvmLight.dll",
        "lib/wpa81/GalaSoft.MvvmLight.pdb",
        "lib/xamarin.ios10/GalaSoft.MvvmLight.Extras.XML",
        "lib/xamarin.ios10/GalaSoft.MvvmLight.Extras.dll",
        "lib/xamarin.ios10/GalaSoft.MvvmLight.Extras.pdb",
        "lib/xamarin.ios10/GalaSoft.MvvmLight.Platform.XML",
        "lib/xamarin.ios10/GalaSoft.MvvmLight.Platform.dll",
        "lib/xamarin.ios10/GalaSoft.MvvmLight.XML",
        "lib/xamarin.ios10/GalaSoft.MvvmLight.dll",
        "lib/xamarin.ios10/GalaSoft.MvvmLight.pdb",
        "mvvmlightlibs.5.3.0.nupkg.sha512",
        "mvvmlightlibs.nuspec"
      ]
    },
    "Newtonsoft.Json/10.0.3": {
      "sha512": "wBM7i7i3U2WX0ecor4zdVGvgrwFUjuigBoHKiL+nH39fCOpCPjBY3RDqJM32edvdyTAVdjzlccHsg41+/+zpSA==",
      "type": "package",
      "path": "newtonsoft.json/10.0.3",
      "files": [
        "LICENSE.md",
        "lib/net20/Newtonsoft.Json.dll",
        "lib/net20/Newtonsoft.Json.xml",
        "lib/net35/Newtonsoft.Json.dll",
        "lib/net35/Newtonsoft.Json.xml",
        "lib/net40/Newtonsoft.Json.dll",
        "lib/net40/Newtonsoft.Json.xml",
        "lib/net45/Newtonsoft.Json.dll",
        "lib/net45/Newtonsoft.Json.xml",
        "lib/netstandard1.0/Newtonsoft.Json.dll",
        "lib/netstandard1.0/Newtonsoft.Json.xml",
        "lib/netstandard1.3/Newtonsoft.Json.dll",
        "lib/netstandard1.3/Newtonsoft.Json.xml",
        "lib/portable-net40+sl5+win8+wp8+wpa81/Newtonsoft.Json.dll",
        "lib/portable-net40+sl5+win8+wp8+wpa81/Newtonsoft.Json.xml",
        "lib/portable-net45+win8+wp8+wpa81/Newtonsoft.Json.dll",
        "lib/portable-net45+win8+wp8+wpa81/Newtonsoft.Json.xml",
        "newtonsoft.json.10.0.3.nupkg.sha512",
        "newtonsoft.json.nuspec",
        "tools/install.ps1"
      ]
    },
    "ZXing.Net.Mobile/2.2.9": {
      "sha512": "71nrm7nDenBJX9G044gQDwZC3BSiyxZSZ4ZHK/WzKPVGuGftlwcVmCWFFotgxqSn1256Vt2Okq4UniByjRwc+w==",
      "type": "package",
      "path": "zxing.net.mobile/2.2.9",
      "files": [
        "lib/MonoAndroid403/ZXing.Net.Mobile.Core.dll",
        "lib/MonoAndroid403/ZXingNetMobile.dll",
        "lib/MonoAndroid403/zxing.portable.dll",
        "lib/UAP10/ZXing.Net.Mobile.Core.dll",
        "lib/UAP10/ZXingNetMobile.dll",
        "lib/UAP10/ZXingNetMobile.pri",
        "lib/UAP10/ZXingNetMobile/ZXingNetMobile.xr.xml",
        "lib/UAP10/zxing.portable.dll",
        "lib/Xamarin.iOS10/ZXing.Net.Mobile.Core.dll",
        "lib/Xamarin.iOS10/ZXingNetMobile.dll",
        "lib/Xamarin.iOS10/zxing.portable.dll",
        "lib/portable-net45+netcore45+wpa81+wp8/ZXing.Net.Mobile.Core.dll",
        "lib/portable-net45+netcore45+wpa81+wp8/ZXingNetMobile.dll",
        "lib/portable-net45+netcore45+wpa81+wp8/zxing.portable.dll",
        "lib/wp8/ZXing.Net.Mobile.Core.dll",
        "lib/wp8/ZXingNetMobile.dll",
        "lib/wp8/zxing.portable.dll",
        "zxing.net.mobile.2.2.9.nupkg.sha512",
        "zxing.net.mobile.nuspec"
      ]
    }
  },
  "projectFileDependencyGroups": {
    "": [
      "CommonServiceLocator >= 1.3.0",
      "MvvmLightLibs >= 5.3.0",
      "Newtonsoft.Json >= 10.0.3",
      "ZXing.Net.Mobile >= 2.2.9"
    ],
    ".NETPortable,Version=v4.5,Profile=Profile111": []
  },
  "packageFolders": {
    "/Users/hugocosta/.nuget/packages/": {}
  },
  "project": {
    "restore": {
      "projectUniqueName": "/Users/hugocosta/Documents/jenkinstest/SingaporeSMS/SingaporeSMS/SingaporeSMS.csproj",
      "projectName": "SingaporeSMS",
      "projectPath": "/Users/hugocosta/Documents/jenkinstest/SingaporeSMS/SingaporeSMS/SingaporeSMS.csproj",
      "projectJsonPath": "/Users/hugocosta/Documents/jenkinstest/SingaporeSMS/SingaporeSMS/project.json",
      "projectStyle": "ProjectJson"
    },
    "dependencies": {
      "CommonServiceLocator": "1.3",
      "MvvmLightLibs": "5.3.0.0",
      "Newtonsoft.Json": "10.0.3",
      "ZXing.Net.Mobile": "2.2.9"
    },
    "frameworks": {
      "portable45-net45+win8+wpa81": {}
    }
  }
}